{
	"8db63936938575bf" : "",
	"8db63936938575bf" : "",
	"8db63936938575bf" : "",
	"8db63936938575bf" : "",
	"dialog_inactive_user_accepted_invite_error" : "某位非活跃状态玩家接受了邀请。此邀请将自动忽略。",
	"dialog_skills_place_title" : "你确定吗？",
	"dialog_external_items_title" : "新款进口战利品",
	"8db63936938575bf" : "",
	"sm_40_obj" : "完成"峰峦之下"任务，难度为非常困难或以上。$NL;要完成此任务，你必须从头开始劫案。",
	"sm_13_obj" : "达到声望等级50。",
	"dialog_unlock_skilltree" : "即将开始$skill;技能树。$NL;$NL;这将花费$remaining_points;剩余点数中的$cost;点。",
	"8db63936938575bf" : "",
	"8db63936938575bf" : "",
	"8db63936938575bf" : "",
	"8db63936938575bf" : "",
	"8db63936938575bf" : "",
	"8cf42e9b5ebce968" : "每个威胁的背后都有更大更危险的威胁。$NL;$NL;根据华盛顿特区监狱的常规音频监控，一场臭名昭著的枪战的幸存者暗示了一名针对PAYDAY帮的神秘敌人。$NL;$NL;前往"遗失的录音带"菜单，偷取这段秘密录音！",
	"8db63936938575bf" : "",
	"8db63936938575bf" : "",
	"8db63936938575bf" : "",
	"dialog_err_room_no_longer_exists_X360" : "该游戏已不存在，请尝试其他游戏。",
	"sm_45_desc" : "看来洛克在阿拉斯加狠狠耍了我们一次，屠夫都要气疯了。我们必须得让这家伙知道惹毛我们的人会有什么下场。洛克现在不知所踪，但他在加内特集团进行过投资。如果我们将其财务状况搞砸掉，洛克也会大伤元气，所以我给你们安排了这么个任务。",
	"8db63936938575bf" : "",
	"sm_29_obj" : "完成"第一世界银行"任务，难度为非常困难或以上。$NL;要完成此任务，你必须从头开始劫案。",
	"dialog_gage_assignment_completed" : "来自：盖奇[gage@///已编辑///]$NL;至：$player;$NL;日期：$date; $time;$NL;主题：盖奇速递任务$NL;$NL;干得漂亮！$NL;$NL;干得好，$player;。感谢帮我收集包裹。该去拿你的奖励了。你可以前往装备库查看以下内容：$NL;$completed;$NL;$NL;——盖奇",
	"8db63936938575bf" : "",
	"dialog_request_timed_out_message" : "加入游戏请求已超时",
	"8db63936938575bf" : "",
	"dialog_telemetry_title" : "网络遥测",
	"dialog_are_you_sure_you_want_to_quit" : "确定要退出游戏吗？",
	"8db63936938575bf" : "",
	"dialog_mp_groupinvite_message" : "确定要加入$GROUP;吗？",
	"8db63936938575bf" : "",
	"dialog_buy_weapon_title" : "购买",
	"8db63936938575bf" : "",
	"dialog_accept_changes_title" : "确认修改？",
	"8db63936938575bf" : "",
	"sm_48_name" : "挫败加内特",
	"8db63936938575bf" : "",
	"8db63936938575bf" : "",
	"sm_1_obj" : "完成教程劫案 - 强袭，或者升至声望等级10。",
	"8db63936938575bf" : "",
	"8db63936938575bf" : "",
	"8db63936938575bf" : "",
	"dialog_continue" : "继续",
	"dialog_game_started" : "该游戏当前不可加入",
	"8db63936938575bf" : "",
	"dialog_err_wrong_version_message" : "你想加入的游戏正在运行PAYDAY_2的另一个版本。你无法加入。",
	"err_ins" : "载入奖杯时出现错误。请退出游戏后重试。",
	"sm_26_name" : "货运费用",
	"sm_23_obj" : "完成"钻石魅影"任务，难度为非常困难或以上。$NL;要完成此任务，你必须从头开始劫案。",
	"dialog_mp_kick_player_message" : "玩家$PLAYER;将被踢出游戏，确定要继续吗？",
	"8db63936938575bf" : "",
	"sm_53_desc" : "贝恩知道自己已经命不久矣，他死前最想看到的就是我们能在一切结束前拿到应得的回报。他总是念叨着什么"天下第一大劫案"......但我从不知道他到底想说什么，直到现在。事情是这样的——在美国内战结束时，总统林肯为当时的南部美利坚联盟国士兵颁布了特赦令，希望能藉此巩固国家统一。而为了更方便特赦令的传递，有不少文件里并没有签署具体姓名，而是直接由诸位将军进行发放。此事过后仍然有一些特赦令被存留了下来，全部封锁在......白宫。大伙听好了——这些东西依然具有法律效力！要是我们能就这样金盆洗手退隐江湖的话......这东西还确实挺有用的哈？那么咱们就动手吧。白宫已经被那帮唯恐天下不乱的混蛋们给清空了，这样一来我们倒也有机会潜入了。现在里面只有莫奇沃特的骷髅军团在执行警卫工作——毫无疑问是牙医在联邦经济情报局和其他机构撤离后将这些家伙调遣来的。不过可别放松警惕......这次我们无疑是孤注一掷，不成功，便成仁。",
	"dialog_allocate_skillpoint" : "即将解锁$skill;技能。$NL;$NL;这将花费$cost;与$remaining_points;剩余点数中的$points;点。",
	"8db63936938575bf" : "",
	"dialog_mp_restart_level_title" : "重新开始",
	"8db63936938575bf" : "",
	"8db63936938575bf" : "",
	"8db63936938575bf" : "",
	"dialog_blackmarket_num_in_inventory" : "你已拥有$amount;件$item;。",
	"dialog_mp_invite_wrong_room_message" : "你受邀加入的游戏已不再存在。你无法加入。",
	"dialog_cs_ga_already_purchased_text" : "每个罪无止境关卡中你只能购买一次盖奇加成。",
	"dialog_telemetry_toggle" : "启用网络遥测",
	"8db63936938575bf" : "",
	"8db63936938575bf" : "",
	"8db63936938575bf" : "",
	"dialog_can_become_infamous_desc" : "你已满足晋升下一恶名等级所需的必要条件。如若要进行恶名晋级，请在装备库中按'$become_infamous_menu_item;'。",
	"dialog_are_you_sure_you_want_to_leave_game_crime_spree" : "确定要离开当前游戏吗？$NL;$NL;这会导致你当前的罪无止境失败，你必须支付大陆币继续，或在罪无止境大厅中获取奖励。",
	"8db63936938575bf" : "",
	"8db63936938575bf" : "",
	"8db63936938575bf" : "",
	"dialog_err_cant_join_from_game" : "加入新游戏之前必须离开当前游戏。",
	"dialog_vote_kick_yes" : "同意踢出",
	"af3ce5c76f891112" : "钻石恒久远，但精神易崩溃。$NL;$NL;一段隐藏的录音揭示了钻石大亨和他儿子之间的争吵，以及PAYDAY帮的罪行是如何将他们俩逼到疯狂边缘的。$NL;$NL;前往"遗失的录音带"菜单，偷取这段秘密录音！",
	"dialog_mp_invite_title" : "PAYDAY 2",
	"8db63936938575bf" : "",
	"8db63936938575bf" : "",
	"sm_52_name" : "局势反转",
	"8db63936938575bf" : "",
	"nx64_presence_MPPlaying" : "游玩多人劫案中",
	"8db63936938575bf" : "",
	"8db63936938575bf" : "",
	"dialog_mp_invite_wrong_version_message" : "你受邀加入的游戏正在运行PAYDAY 2的其他版本。你无法加入。",
	"dialog_storage_removed_warning_X360" : "选定的存储设备已被移除。你的进度将不再被保存。",
	"dialog_connect_controller_title_NX64" : "已断开控制器连接",
	"dialog_connect_controller_title_WIN32" : "控制器未连接",
	"dialog_mp_restart_level_host_message" : "确定要重新开始吗？",
	"8db63936938575bf" : "",
	"sm_moving_up_desc_old" : "好吧，我之前就说过你们已经备受瞩目，其中有个家伙对你们非常有兴趣。这位合约人对我而言有大用处，但他的任务可不简单，你们要做好准备。一切就绪之后回来找我，由我来安排任务。",
	"8db63936938575bf" : "",
	"dialog_err_failed_joining_lobby" : "加入游戏失败。",
	"nx64_noti_invite_accept" : "接受",
	"sm_2_obj" : "前往装备库，给自己装备一项随身装备，一套天赋牌组再花费5技能点。",
	"dialog_mp_pending_invite_short_message" : "你有一份未查看的游戏邀请。",
	"dialog_game_is_installing" : "现在无法接受邀请。请在游戏完整安装后重试。",
	"8db63936938575bf" : "",
	"8db63936938575bf" : "",
	"sm_29_name" : "秘密&黄金",
	"8db63936938575bf" : "",
	"8db63936938575bf" : "",
	"nx64_noti_received_from" : "收到邀请来自",
	"8db63936938575bf" : "",
	"8db63936938575bf" : "",
	"8db63936938575bf" : "",
	"dialog_getting_world_list" : "获取世界列表中",
	"8db63936938575bf" : "",
	"sm_16_obj" : "完成"鼠辈"任务，难度为非常困难或以上。$NL;要完成此任务，你必须从头开始劫案。",
	"dialog_bm_mask_sell_title" : "你确定吗？",
	"8db63936938575bf" : "",
	"dialog_err_room_is_full" : "该房间已满，请尝试其他房间。",
	"dialog_infamous_info_desc" : "你还不具备晋级资格。要进行恶名晋级，你需要到达声望等级$level;并从离岸账户中支付$cash;，你的技能点与剩余可用现金也会全部清空。",
	"8db63936938575bf" : "",
	"8db63936938575bf" : "",
	"8db63936938575bf" : "",
	"8db63936938575bf" : "",
	"dialog_error_title" : "错误",
	"8db63936938575bf" : "",
	"dialog_safehouse_text" : "你还未访问过安全屋。要现在就去看一看吗？",
	"8db63936938575bf" : "",
	"8db63936938575bf" : "",
	"dialog_key_binding_forbidden" : ""$KEY;"键为游戏预留键位，请尝试其他键位。",
	"dialog_connecting_inet_title_NX64" : "连接中......",
	"8db63936938575bf" : "",
	"8db63936938575bf" : "",
	"dialog_leaving_lobby_title" : "离开游戏中",
	"dialog_cs_claim_rewards" : "获取奖励",
	"8db63936938575bf" : "",
	"nx64_presence_Idle" : "菜单中",
	"8db63936938575bf" : "",
	"8db63936938575bf" : "",
	"8db63936938575bf" : "",
	"sm_19_obj" : "完成"选举日"任务，难度为非常困难或以上。$NL;要完成此任务，你必须从头开始劫案。",
	"8db63936938575bf" : "",
	"dialog_bm_weapon_modify_title" : "你确定吗？",
	"dialog_save_settings_failed" : "保存失败",
	"8db63936938575bf" : "",
	"8db63936938575bf" : "",
	"8db63936938575bf" : "",
	"8db63936938575bf" : "",
	"8db63936938575bf" : "",
	"dialog_unlock_skill_switch" : "即将解锁一套新技能预设。$NL;$NL;$cost_text;",
	"dialog_reward_failed_title" : "获取奖励",
	"dialog_err_room_is_full_X360" : "该游戏已满，请尝试其他游戏。",
	"sm_1_obj_old" : "完成教程劫案的潜入与强袭内容，或升至声望等级10。",
	"8db63936938575bf" : "",
	"8db63936938575bf" : "",
	"8db63936938575bf" : "",
	"sm_9_obj" : "完成"熔火行动"任务，难度为困难或以上。$NL;要完成此任务，你必须从头开始劫案。",
	"sm_5_obj_consoles" : "完成"钻石商店"任务。$NL;要完成此任务，你必须从头开始劫案。",
	"dialog_are_you_sure_you_want_stop_cs" : "确定要结束罪无止境吗？$NL;$NL;这会结束你当前的罪无止境，并且不会获得任何奖励。",
	"dialog_are_you_sure_you_want_leave" : "确定要离开此大厅吗？",
	"8db63936938575bf" : "",
	"dialog_ask_load_progress_backup_wrong_version" : "存档版本错误。要载入备份吗？选择否将会清除你的存档。",
	"8db63936938575bf" : "",
	"dialog_signin_change_title_NX64" : "登录变更",
	"8db63936938575bf" : "",
	"dialog_blackmarket_buy_weapon_slot" : "即将解锁一个新武器栏。$NL;$NL;这将花费$money;。",
	"dialog_a10th_event_text" : "击杀特殊敌人会产生气球。打破气球即可为全队获得持续或即刻增益，具体取决于被击杀的特殊敌人类型。某些敌人产生气球的概率比其他敌人更高。同时可以激活多种加成。",
	"8db63936938575bf" : "",
	"8db63936938575bf" : "",
	"8db63936938575bf" : "",
	"8db63936938575bf" : "",
	"8db63936938575bf" : "",
	"dialog_external_items_prefix_desc" : "特别物品已送往你的装备库！",
	"sm_5_obj" : "完成"GO银行"任务与"钻石商店"任务。$NL;要完成此任务，你必须从头开始劫案。",
	"dialog_pda9_event_title" : "Payday 2九周年",
	"8db63936938575bf" : "",
	"8db63936938575bf" : "",
	"dialog_blackmarket_slot_item_sell" : "出售此物品将获得$money;。",
	"sm_22_desc" : "干掉政委之后，牙医也终于能接触到地方检察官了。我们随即也了解到了一次顶级安保转监行动。当然，我们关心的只有一个人——老朋友霍斯顿。他是联邦调查局重点看管的高价值囚犯。给检察官一点压力，我们就能让霍斯顿找到越狱机会，因此开始行动吧。",
	"nx64_noti_press_to_view_p2" : "$BTN_START;",
	"8db63936938575bf" : "",
	"d01257ebc5921038" : "网络遥测",
	"8db63936938575bf" : "",
	"sm_34_desc" : "我们的老朋友大象为我们带来了新鲜血液——本地飞车党的一名成员。这家伙是个狠角色，也是个强悍的战友。不过在他正式加入之前，他希望我们帮他离开原来的帮派。很明显那些家伙对擅自退会的成员并不友善。我的意思是可以帮忙——这是一项投资，对我们也算好人好报。拉斯特还提到这个帮派掌握着某项可以为我所用的技术......",
	"dialog_information_title" : "信息",
	"dialog_are_you_sure_you_want_leave_cs" : "确定要离开此大厅吗？$NL;$NL;你的罪无止境将暂停，直到你再次继续。",
	"8db63936938575bf" : "",
	"dialog_unlock_skill_switch_spending" : "这将花费$spending;可用现金。",
	"8db63936938575bf" : "",
	"dialog_blackmarket_assemble_item" : "确定要将$item;面具放入你的装备库吗？$NL;$NL;$num_in_inventory;",
	"8db63936938575bf" : "",
	"8db63936938575bf" : "",
	"8db63936938575bf" : "",
	"8db63936938575bf" : "",
	"sm_40_name" : "猫咬狗",
	"edebc4f3e4c69f21" : "禁用Gamesight",
	"8db63936938575bf" : "",
	"dialog_new_player_text" : "如果你还是个新手劫匪，那么生涯模式可以让你迅速了解PAYDAY帮的行事作风与光辉事迹。",
	"dialog_are_you_sure_you_want_stop_cs_refund" : "确定要结束罪无止境吗？$NL;$NL;这会结束你当前的罪无止境，并且不会获得任何奖励。你最初投入的$coins;枚大陆币将返还给你。",
	"8db63936938575bf" : "",
	"8db63936938575bf" : "",
	"8db63936938575bf" : "",
	"8db63936938575bf" : "",
	"6e16550488fe919c" : "遗失的录音带：与加内特一家同行",
	"sm_7_desc" : "你们已经证明了自己能够神出鬼没、大闹一番并完成任务，合约人也会联系我们。首先是第一位——弗拉德·科扎克。这家伙是个疯子，甚至在俄罗斯黑帮里也无人能出其右。他对你们的工作很欣赏，但愿这是件好事。不过在他信任你们之前，你们还得再表演一下。",
	"dialog_privacy" : "阅读隐私政策",
	"dialog_default_options_title" : "重置选项",
	"sm_50_name" : "重见天日",
	"8db63936938575bf" : "",
	"8db63936938575bf" : "",
	"8db63936938575bf" : "",
	"8db63936938575bf" : "",
	"8db63936938575bf" : "",
	"8db63936938575bf" : "",
	"8db63936938575bf" : "",
	"8db63936938575bf" : "",
	"sm_32_obj" : "完成"模拟山羊"或"圣诞工坊"任务，难度为非常困难或以上。$NL;要完成此任务，你必须从头开始劫案。",
	"8db63936938575bf" : "",
	"sm_12_obj" : "完成"夜总会"任务与"圣诞大盗"任务，难度为困难或以上。$NL;要完成此任务，你必须从头开始劫案。",
	"8db63936938575bf" : "",
	"dialog_requires_steam_overlay" : "此功能需要Steam社区界面。请确认已启用游戏中Steam社区，并重启游戏以使用此功能。",
	"8db63936938575bf" : "",
	"8db63936938575bf" : "",
	"sm_50_obj" : "完成"沙克索恩拍卖行"任务，难度为非常困难或以上。$NL;要完成此任务，你必须从头开始劫案。",
	"dialog_cs_ga_in_progress" : "劫案进行中",
	"8db63936938575bf" : "",
	"dialog_err_room_no_longer_exists" : "该房间已不存在，请尝试其他房间。",
	"8db63936938575bf" : "",
	"dialog_signin_question_NX64" : "你必须登录至某一账户才能保存。是否要现在登录？",
	"ps4_presence_MPEnd" : "多人劫案已结束",
	"sm_hoxton_revenge_name" : "安全屋的枪声",
	"dialog_skip_signin_warning_NX64" : "未登录时你的进度将不会被保存。$NL;$NL;确定要在不保存的情况下继续吗？",
	"dialog_load_wrong_user" : "存档属于另一位玩家。无法保存进度，奖杯也无法解锁。",
	"dialog_blackmarket_mod_add" : "即将对你的武器添加改装$mod;。",
	"dialog_blackmarket_mask_sell_mod_readded" : "$mod;会返回你的装备库中。",
	"dialog_cs_claim_rewards_text" : "确定要获取罪无止境奖励吗？$NL;$NL;这将结束你当前的罪无止境大厅，如果你想再次获取奖励就必须重新开始。",
	"8db63936938575bf" : "",
	"dialog_npcommerce_browse_fail" : "无法打开PlayStation®Store",
	"8db63936938575bf" : "",
	"dialog_wait_title" : "请稍候",
	"dialog_internet_connection_required" : "你需要连接网络才能游玩此部分内容。",
	"8db63936938575bf" : "",
	"8db63936938575bf" : "",
	"sm_47_desc" : "朋友们，我保证过会和你们查清最后的真相哈？贝恩一直在秘密查找某种圣杯之类的玩意，我答应要帮他来着。就算他不在了，但这项事业仍要继续。杜克通过查阅大量古代文献发现了不少新的线索。贝恩在出事之前曾打算寻找埋藏在布鲁克林银行下方的一件圣物，那东西在20世纪早期就被放在了那里，而且可能会有我们需要的线索。",
	"8db63936938575bf" : "",
	"8db63936938575bf" : "",
	"dialog_dlc_require_restart_desc" : "你需要重新启动PAYDAY 2获取新物品。",
	"dialog_npcommerce_opening" : "正在初始化PlayStation®Store",
	"8db63936938575bf" : "",
	"dialog_unlock_infamyitem" : "即将解锁$item;物品。$NL;$NL;这将花费剩余$remaining_points;点数中的$points;点。",
	"dialog_dropin_title" : "$USER;加入游戏中",
	"dialog_a10th_event_title" : "10周年活动",
	"dialog_new_unlock_armors" : "你的第一份护甲升级已解锁。$NL;你可以在装备库和任务概览中更换护甲。",
	"dialog_mp_kicked_out_message" : "你已被踢出游戏。",
	"dialog_license_policy_text" : "在开始你的PAYDAY 2游戏之前，我们需要告知你，游玩该产品意味着你接受我们的隐私政策和PAYDAY最终用户许可协议。",
	"sm_46_name" : "蓝黑相间",
	"sm_9_desc_old" : "好吧。弗拉德对你们挺欣赏的，他说有工作交给你们。特殊的大活。他要你们从当时帮盖奇入侵的莫奇沃特仓库里运点东西出来。弗拉德和莫奇沃特相互看不顺眼，因此处理不好对大家都麻烦。动作一定要快。",
	"dialog_apply" : "应用",
	"8db63936938575bf" : "",
	"dialog_blackmarket_mod_cost" : "这将花费$money;。",
	"sm_9_name" : "抱头蹲防",
	"8db63936938575bf" : "",
	"dialog_err_not_signed_in_PS3" : "你必须登录PlayStation_Network才能使用在线模式。",
	"dialog_mp_kick_player_title" : "踢出玩家",
	"8db63936938575bf" : "",
	"8db63936938575bf" : "",
	"8db63936938575bf" : "",
	"sm_24_obj" : "完成"金牙大赌场"任务，难度为非常困难或以上。$NL;要完成此任务，你必须从头开始劫案。",
	"sm_24_name" : "一场豪赌",
	"8db63936938575bf" : "",
	"8db63936938575bf" : "",
	"8db63936938575bf" : "",
	"8db63936938575bf" : "",
	"dialog_err_room_is_closed" : "该房间已关闭，请尝试其他房间。",
	"8db63936938575bf" : "",
	"8db63936938575bf" : "",
	"dialog_ask_save_progress_backup" : "保存备份存档？",
	"legal_text" : "PAYDAY 2 © 2019 Starbreeze AB. All rights reserved. PAYDAY 2, PAYDAY, Starbreeze, Starbreeze Studios, and the Starbreeze logo are trademarks or registered trademarks of Starbreeze AB in Sweden and/or other countries. Published by 505 Games. 505 Games and the 505 Games logo are registered trademarks of 505 Games S.r.l. All other trademarks are the property of their respective owners.",
	"8db63936938575bf" : "",
	"dialog_inactive_user_accepted_invite" : "某位非活跃状态玩家接受了邀请。按START可成功完成邀请流程。",
	"8db63936938575bf" : "",
	"sm_29_desc" : "好吧，我盯上这地方很久了，但首先得确定我们有能力搞定。第一世界银行，历史悠久管理有方，里面满是秘密与黄金，全等着我们来搜刮呢。虽然我们已经声名远扬，不过这次行动足以让我们青史留名。",
	"8db63936938575bf" : "",
	"8db63936938575bf" : "",
	"845e40442caaf833" : "行动就会有后果，即使是PAYDAY帮。$NL;$NL;当金赛克工业面临金融危机时，一通被窃听的电话揭示了谁的损失最大......以及他们将为这一损失怪罪谁。$NL;$NL;前往"遗失的录音带"菜单，偷取这段秘密录音！",
	"cacd98a9e4dda31a" : "遗失的录音带：不利于生意",
	"8db63936938575bf" : "",
	"8db63936938575bf" : "",
	"sm_hoxton_revenge_obj" : "完成"霍斯顿复仇记"任务，难度为非常困难或以上。$NL;要完成此任务，你必须从头开始劫案。",
	"dialog_signin_title_X360" : "未登录",
	"8db63936938575bf" : "",
	"49559d23ba99741e" : "遗失的录音带：全州公敌",
	"8db63936938575bf" : "",
	"8db63936938575bf" : "",
	"8db63936938575bf" : "",
	"dialog_challenge_warn_choose_reward_title" : "你确定吗？",
	"8db63936938575bf" : "",
	"8db63936938575bf" : "",
	"8db63936938575bf" : "",
	"8db63936938575bf" : "",
	"dialog_skip_storage_warning_X360" : "未检测到存储设备。$NL;$NL;如果未选中存储设备就继续，你将无法保存游戏。$NL;$NL;确定要在不保存的情况下继续吗？",
	"dialog_repair_weapon_title" : "修理",
	"sm_51_obj" : "完成"勇闯恶魔岛"任务，难度为非常困难或以上。$NL;要完成此任务，你必须从头开始劫案。",
	"sm_41_desc" : "伙计们，山里那次任务在当时环境下表现相当不错。希望你们这次准备好空中之旅了。洛克又有一项任务需要些"帮助"，地点在一架莫奇沃特货机上。他好像很执着于将对方的所有行动搞成一团糟，对此我当然乐意奉陪。不过还是要注意可疑情况，我还不确定这家伙会不会背后捅我们一刀。",
	"8db63936938575bf" : "",
	"8db63936938575bf" : "",
	"dialog_blackmarket_lost_mods_warning" : "（你移除的改装将会被放回装备库中）",
	"8db63936938575bf" : "",
	"8db63936938575bf" : "",
	"35167927db02cf7b" : "Gamesight",
	"8db63936938575bf" : "",
	"dialog_on_server_left_message_cs" : "$message;$NL;你的罪无止境仍在开启中，但你的等级不会改变。$NL;$NL;你将返回主菜单。",
	"8db63936938575bf" : "",
	"dialog_npcommerce_checkout_fail" : "校验失败",
	"8db63936938575bf" : "",
	"8db63936938575bf" : "",
	"8db63936938575bf" : "",
	"12f00d0145597481" : "万圣节",
	"8db63936938575bf" : "",
	"8db63936938575bf" : "",
	"8db63936938575bf" : "",
	"dialog_signin_change_title_X360" : "登录变更",
	"screen_autosaving_warning_NX64" : "此游戏会在特定位置自动保存数据。$NL;保存时请不要关闭游戏。此图标出现时请勿关闭Nintendo Switch™：",
	"sm_14_name" : "更进一步",
	"dialog_fail_load_game_corrupt" : "存档损坏。无法载入游戏。",
	"dialog_unlock_skill_switch_title" : "你确定吗？",
	"8db63936938575bf" : "",
	"ps4_presence_Idle" : "菜单中",
	"8db63936938575bf" : "",
	"8db63936938575bf" : "",
	"81297ba2c08fb8a3" : "PAYDAY 2隐私政策",
	"8db63936938575bf" : "",
	"8db63936938575bf" : "",
	"8db63936938575bf" : "",
	"dialog_skills_reseted_title" : "请注意",
	"8db63936938575bf" : "",
	"sm_19_name" : "聪明反被聪明误",
	"8db63936938575bf" : "",
	"dialog_new_patch" : "更新后才能游玩在线功能。",
	"sm_36_desc" : "伙计们，大陆酒店来任务了。他们需要运送一批法拉基尼跑车，并且希望我们能搭把手。他们手下有个叫卡戎的家伙目前在纽约市出了点麻烦，需要人去捞他一把。他和钱恩斯的共同好友——约翰·威克就当起了牵线搭桥的角色。正好我在那也有要见的人，对我们未来会有帮助。事不宜迟，咱们纽约城走一遭。",
	"dialog_new_unlock_secondaries" : "$value;已解锁$NL;并可购买至空副武器栏中。",
	"8db63936938575bf" : "",
	"8db63936938575bf" : "",
	"dialog_game_permission_changed" : "游戏设置已更改，你已无权加入",
	"dialog_storage_removed_warning_NX64" : "选定的存储设备已被移除。你的进度将不再被保存。",
	"8db63936938575bf" : "",
	"8db63936938575bf" : "",
	"dialog_remove_dead_peer" : "与一位或更多玩家的连接无法建立。",
	"dialog_infamous_info_title" : "恶名系统",
	"8db63936938575bf" : "",
	"dialog_challenge_warn_choose_reward" : "这是你想要的奖励吗？$NL;$reward;",
	"nx64_noti_legend_view_invite" : "$BTN_ACCEPT;查看邀请",
	"dialog_skip_signin_warning_X360" : "未登录时你的进度将不会被保存。$NL;$NL;确定要在不保存的情况下继续吗？",
	"8db63936938575bf" : "",
	"sm_5_name" : "财富&荣耀",
	"8db63936938575bf" : "",
	"dialog_mp_invite_join_message" : "请在Crime.net菜单中使用'查看邀请'选项加入此游戏。",
	"sm_5_desc" : "做得不错。你们的名气在进一步提升。在这个圈子里混，名气是最重要的。钱来钱走如过眼云烟，只有名气才能让你们证明自己的价值。继续努力吧。",
	"dialog_blackmarket_slot_mask_remove_suffix" : "自定义改装将以$money;售出。",
	"8db63936938575bf" : "",
	"dialog_too_low_level_ovk145" : "低于声望等级145的玩家无法游玩OVERKILL 145+",
	"8db63936938575bf" : "",
	"8db63936938575bf" : "",
	"8db63936938575bf" : "",
	"nx64_presence_MPEnd" : "多人劫案已结束",
	"8db63936938575bf" : "",
	"8db63936938575bf" : "",
	"dialog_no_connection_to_game_servers" : "与游戏房间的连接无法建立。",
	"dialog_age_restriction" : "由于你的Sony_Entertainment_Network账户受到家长控制的限制，在线功能已禁用。",
	"dialog_connect_controller_text_WIN32" : "请插入控制器。",
	"8db63936938575bf" : "",
	"dialog_accept_changes" : "确定要保存以上显示设置吗？将于$TIME;秒后恢复。",
	"8db63936938575bf" : "",
	"8db63936938575bf" : "",
	"8db63936938575bf" : "",
	"8db63936938575bf" : "",
	"sm_30_obj" : "完成"午夜车站"任务，难度为非常困难或以上。$NL;要完成此任务，你必须从头开始劫案。",
	"nx64_noti_button_back" : "$BTN_CANCEL;返回",
	"8db63936938575bf" : "",
	"sm_26_obj" : "完成"疤面庄园"任务，难度为非常困难或以上。$NL;要完成此任务，你必须从头开始劫案。",
	"dialog_cs_ga_already_purchased" : "已购买",
	"8db63936938575bf" : "",
	"8db63936938575bf" : "",
	"8db63936938575bf" : "",
	"8db63936938575bf" : "",
	"dialog_cs_crash_fail" : "罪无止境失败",
	"8db63936938575bf" : "",
	"8db63936938575bf" : "",
	"sm_4_name" : "午夜劫案",
	"8db63936938575bf" : "",
	"8db63936938575bf" : "",
	"dialog_blackmarket_item" : "$item;",
	"8db63936938575bf" : "",
	"sm_44_obj" : "完成"阿拉斯加之旅"劫案，难度为非常困难或以上。$NL;要完成此任务，你必须从头开始劫案。",
	"dialog_skilltree_reseted" : "技能树已发生改变。$NL;$NL;你的所有技能已重置，技能点与现金已退回。",
	"dialog_blackmarket_mod_replace" : "这将取代你的当前改装$mod;。",
	"sm_41_obj" : "完成"天之诞辰"任务，难度为非常困难或以上。$NL;要完成此任务，你必须从头开始劫案。",
	"8db63936938575bf" : "",
	"8db63936938575bf" : "",
	"dialog_authentication_host_fail" : "Steam无法验证房主的Steam ID。",
	"84e133afa4a8bf5f" : "PAYDAY 2已经发售十年了？！时间过得真快！在这美好的十年里，和各位一起抢劫是一件非常快乐的事情，为了庆祝，我们将让小猪存钱罐再次盛大登场！$NL;$NL;你可以在本次活动CRIME.NET页面中的任何劫案中找到小猪存钱罐。它通常会出现在劫案开始或结束处、屋顶和任何空旷的地方。给它喂食小猪钞票可以让它成长；每10次普通击杀、每5次爆头击杀、每5次钞票喷射器击杀或每次周年武器击杀都会获得一袋小主钞票。$NL;$NL;第一袋小猪钞票将唤醒小猪存钱罐进入第一阶段，小猪存钱罐可一直成长到第五阶段。每当小猪等级提升时，它都会为你的团队提供强大的增益状态奖励，让你的小猪钞票源源不断。但要注意的是：等级提升后也会出现一种可怕的新敌人......疣猪！这种特殊防爆特警简直是野兽，但其很容易受到周年武器的攻击。记住这一点。$NL;$NL;当你想收手时，就打碎存钱罐，然后活着撤离劫案现场。存钱罐越大，你获得的现金、经验、战利品掉落和大陆币奖励就越多。你还可以通过十周年额外挑战获得更多好东西！$NL;$NL;现在，去让小猪为你骄傲吧！",
	"8db63936938575bf" : "",
	"sm_35_obj" : "完成"奇袭避难室"任务，难度为非常困难或以上。$NL;要完成此任务，你必须从头开始劫案。",
	"8db63936938575bf" : "",
	"sm_53_name" : "天下第一劫案",
	"dialog_ok" : "好的",
	"8db63936938575bf" : "",
	"8db63936938575bf" : "",
	"8db63936938575bf" : "",
	"dialog_mp_vote_restart_message" : "已发起重开关卡的投票。投票将于$time;秒后结束。",
	"6cc8ac044229f21d" : "禁用网络遥测",
	"8db63936938575bf" : "",
	"8db63936938575bf" : "",
	"dialog_cs_ga_in_progress_text" : "关卡开始后不可购买盖奇加成。",
	"8db63936938575bf" : "",
	"dialog_skills_respec_title" : "你确定吗？",
	"8db63936938575bf" : "",
	"dialog_blackmarket_buy_item" : "确定要购买$item;吗？$NL;$NL;这将花费$money;。$NL;$NL;$num_in_inventory;",
	"sm_47_obj" : "完成"布鲁克林银行"任务，难度为非常困难或以上。$NL;要完成此任务，你必须从头开始劫案。",
	"dialog_dlc_require_restart" : "注意",
	"dialog_continue_cs_text" : "确定要继续罪无止境吗？$NL;这会使你的罪无止境从等级$level;$BTN_SPREE_TICKET;继续开始以获取罪无止境等级并累积更多奖励。$NL;$NL;这将花费$cost;枚大陆币。",
	"8db63936938575bf" : "",
	"8db63936938575bf" : "",
	"sm_44_desc" : "准备去北方旅游一次吧，伙计们。洛克和屠夫有一场军火交易，不过他需要一点额外保护。这次交易地点在某个偏远的阿拉斯加港口，所以记得穿好保暖的衣服。你们需要变装化名，我已经为你们订好了票。",
	"8db63936938575bf" : "",
	"sm_act_1_name" : "第1章：小试牛刀",
	"8db63936938575bf" : "",
	"dialog_bm_mask_custom_abort" : "你确定吗？",
	"dialog_new_player_title" : "你的劫匪生涯",
	"8db63936938575bf" : "",
	"dialog_err_room_allready_joined" : "你已经加入该房间。",
	"8db63936938575bf" : "",
	"8db63936938575bf" : "",
	"sm_27_name" : "专业领域",
	"dialog_return_to_cs_lobby" : "确定要返回罪无止境大厅吗？",
	"8db63936938575bf" : "",
	"8db63936938575bf" : "",
	"dialog_mp_vote_kick_message" : "已发起将$name;踢出游戏的投票。投票将于$time;秒后结束。",
	"sm_6_obj" : "完成至少三次"武装押运"任务。$NL;完成"武装押运：火车劫案"并偷走原型炮塔。$NL;要完成此任务，你必须从头开始劫案。",
	"8db63936938575bf" : "",
	"8db63936938575bf" : "",
	"8db63936938575bf" : "",
	"8db63936938575bf" : "",
	"8db63936938575bf" : "",
	"dialog_parental_control" : "由于你的Sony_Entertainment_Network账户受到家长控制的限制，在线服务已禁用。",
	"8db63936938575bf" : "",
	"8db63936938575bf" : "",
	"8db63936938575bf" : "",
	"sm_38_name" : "小丑、死亡与税收永存",
	"dialog_mp_no_invites_message" : "你没有游戏邀请。",
	"8db63936938575bf" : "",
	"8db63936938575bf" : "",
	"sm_43_desc" : "伙计们，经过一点不那么友好的"说服"，我们获得了关于坚斗的一份线索。有个叫一雄的家伙手上有我们想要的情报，只是有点小麻烦：他被关在华盛顿中心区的监狱里。幸运的是我已经安排好了一次转监，这样我们就能在途中把他带走。这次动静肯定小不了，而且之后市政局怕是忘不掉我们了，因为这次他们不光要填坑——我们要把整座大桥炸掉！",
	"dialog_abort_weapon_color_customize" : "确定要不保存配置就返回吗？",
	"dialog_yes" : "是",
	"8db63936938575bf" : "",
	"8db63936938575bf" : "",
	"dialog_waiting_for_server_response_title" : "等待游戏响应中",
	"sm_15_desc" : "条子竟然在埋伏我们！我们队伍内部或是周围的人肯定出了叛徒。赫克特又有新任务交给我们，还是和他的死对头——门多萨集团有关。希望这次行动能把叛徒引出来。",
	"8db63936938575bf" : "",
	"dialog_load_wrong_user_WIN32" : "存档属于另一位玩家。无法保存进度。",
	"8db63936938575bf" : "",
	"8db63936938575bf" : "",
	"8db63936938575bf" : "",
	"8db63936938575bf" : "",
	"dialog_account_picker" : "更换档案可能导致未保存进度丢失。确定要继续吗？",
	"sm_16_desc" : "赫克特想到了该如何解决正打算潜逃出境的门多萨贩毒集团。计划的一部分是从另一个名为蝮蛇帮的组织处取得情报，不过那群家伙不要钱——他们只收冰毒。赫克特不想把自己的人掺和进来，于是我们要负责接手这单交易。赫克特就指着这事出人头地，因此我们得好好干。",
	"8db63936938575bf" : "",
	"dialog_demo_info_title" : "欢迎来到PAYDAY 2试玩版！",
	"8db63936938575bf" : "",
	"dialog_sbzacc_drop_name" : "Starbreeze Nebula账户",
	"dialog_fail_load_progress_corrupt_retry" : "无法载入存档。是否尝试重新载入？",
	"8db63936938575bf" : "",
	"dialog_err_room_is_full_NX64" : "该房间已满，请尝试其他房间。",
	"8db63936938575bf" : "",
	"8db63936938575bf" : "",
	"sm_46_desc" : "伙计们，该离开华盛顿放个假了，我这里刚好有份经典任务交给你们。我在洛杉矶有个卡伯特家族的朋友需要一点额外帮手。这次行动还是和加内特集团有关，也就意味着......更多的钻石。我之前欠那家伙一个人情，所以就拜托你们去帮帮忙了，当然报酬少不了。给那些好莱坞所谓的时尚达人展示一下来自华盛顿的专业水准吧。应该是小菜一碟。",
	"8db63936938575bf" : "",
	"dialog_bm_weapon_buy_title" : "你确定吗？",
	"8db63936938575bf" : "",
	"8db63936938575bf" : "",
	"dialog_mp_disconnected_internet_X360" : "你已从Xbox_Live断开连接。你需要连接网络才能游玩此部分内容。",
	"dialog_connection_to_host_lost" : "与房主的连接已断开",
	"8db63936938575bf" : "",
	"sm_17_obj" : "完成"石油大亨"任务，难度为非常困难或以上。$NL;要完成此任务，你必须从头开始劫案。",
	"8db63936938575bf" : "",
	"8db63936938575bf" : "",
	"8db63936938575bf" : "",
	"8db63936938575bf" : "",
	"8db63936938575bf" : "",
	"8db63936938575bf" : "",
	"dialog_tradable_drills_converted" : "以下钻机将转换为同类型的保险箱。你将会收到与拥有钻机等量的保险箱。$NL;请注意收取。$NL;$list;",
	"dialog_mp_kicked_out_title" : "已踢出",
	"8db63936938575bf" : "",
	"8db63936938575bf" : "",
	"8db63936938575bf" : "",
	"dialog_are_you_sure_you_want_to_reset_statistics" : "确定要重置数据吗？",
	"8db63936938575bf" : "",
	"8db63936938575bf" : "",
	"dialog_the_host_has_left_the_game_cs" : "房主已离开游戏。你的罪无止境仍在开启中，但你的等级不会改变。$NL;$NL;你将返回主菜单。",
	"8db63936938575bf" : "",
	"8db63936938575bf" : "",
	"sm_18_obj" : "完成"偷天换日"任务，难度为非常困难或以上。$NL;要完成此任务，你必须从头开始劫案。",
	"8db63936938575bf" : "",
	"dialog_mp_send_invite_message" : "确定要向$FRIEND;发送游戏邀请吗？",
	"nx64_noti_dialog_subject" : "邀请人：$player_name;",
	"8db63936938575bf" : "",
	"8db63936938575bf" : "",
	"sm_6_desc" : "非常出色。人们开始对PAYDAY帮有所耳闻。我说过名气就是一切。你们要想办法争取更多资源，而手握资源的人都在观察。他们等着看你们能做到什么程度，而我手上就有这样的任务。",
	"8db63936938575bf" : "",
	"dialog_ask_load_progress_backup_corrupt" : "存档损坏。要载入备份吗？选择"否"将会删除你的存档。",
	"8db63936938575bf" : "",
	"8db63936938575bf" : "",
	"8db63936938575bf" : "",
	"sm_18_name" : "扫清障碍",
	"sm_8_name" : "人情往来",
	"8db63936938575bf" : "",
	"8db63936938575bf" : "",
	"dialog_mp_restart_level_message" : "确定要投票重新开始吗？",
	"8db63936938575bf" : "",
	"dialog_unlock_skill_switch_free" : "此项不收取费用。",
	"nx64_noti_press_to_view_p3" : "查看",
	"dialog_new_unlock_colors" : "你刚刚获得了用于自定义面具的第一份配色。$NL;要完成自定义面具，你需要材质、花纹和配色。",
	"8db63936938575bf" : "",
	"dialog_fail_load_setting_wrong_version_WIN32" : "设置文件版本错误。即将删除数据。",
	"8db63936938575bf" : "",
	"8db63936938575bf" : "",
	"8db63936938575bf" : "",
	"8db63936938575bf" : "",
	"8db63936938575bf" : "",
	"sm_49_desc" : "亲爱的朋友们，我之前见过某种类似大象那个箱子的东西，应该是某次访问莫奇沃特在荒漠中某个研究设施时候的事。那个地方算是莫奇沃特的核心地带，里面有各种疯狂的实验，就我看到的那点东西都让我怀疑还要不要和那群疯子继续合作了。我找了个朋友帮我黑进监控录像，并且发现他们手里实际上有两个那样的箱子。杜克很确定"共盟会"收集这些东西与"鲍德温的挽歌"有关。",
	"8db63936938575bf" : "",
	"8db63936938575bf" : "",
	"8db63936938575bf" : "",
	"dialog_mp_disconnected_internet" : "你已断开连接",
	"8db63936938575bf" : "",
	"sm_32_desc" : "嗯......感觉现在所有人都在请我们PAYDAY帮出手啊。弗拉德听说了我们在西伯利亚的冒险之后想请我们帮帮他的小舅子。他一直对我们还挺不错的，所以有兴趣的话就听听他说的吧？或者你们的兴趣点在其他......油水上，他还提到了一处满是飞车党的仓库需要来一点假日欢呼。看你们意思了。",
	"dialog_unlock_skill_switch_offshore" : "这将花费$offshore;离岸资金。",
	"8db63936938575bf" : "",
	"8db63936938575bf" : "",
	"sm_10_desc" : "狂人加核弹头等于什么？还是别问了。弗拉德准备好助你们更上一层楼，并表示可以帮你们与黑帮搭线，不过条子正在刮地三尺寻找这些失踪的核弹头。嗯，让他们在华盛顿折腾去吧。弗拉德有件更紧急的任务要交给你们。动身前往洛杉矶——要快。",
	"dialog_logging_in" : "登录中",
	"sm_35_name" : "运货重件",
	"8db63936938575bf" : "",
	"dialog_infamysystem_reset" : "恶名系统已发生变更。$NL;$NL;全部奖励将转移至线性进度系统。你此前已解锁的全部恶名物品将仍然保持解锁状态。$NL;$NL;如果你此前解锁的经验加成现在移至当前未解锁的恶名等级，则其会保持锁定状态，直至你抵达该等级。现在低于你当前恶名等级的奖励和经验加成将自动解锁。$NL;$NL;前5个恶名等级的前置技能点减免现在将作为首个恶名等级的奖励。",
	"8db63936938575bf" : "",
	"8db63936938575bf" : "",
	"dialog_assets_buy_title" : "你确定吗？",
	"dialog_blackmarket_finalize_item" : "$ITEM;$NL;你即将完成你的自定义设计，该操作不可撤销，并会花费$money;。",
	"8db63936938575bf" : "",
	"8db63936938575bf" : "",
	"sm_1_desc_old" : "开始之前，我们得先把屁股擦干净，也就是说抹掉联邦调查局对你的一切情报。现在你对他们来说还不成气候，因此这应该并不困难。别担心，我来负责支援。给我个机会来相信你仍旧宝刀未老吧。",
	"8db63936938575bf" : "",
	"8db63936938575bf" : "",
	"7c224b921088cbc0" : "拒绝并关闭游戏",
	"dialog_gage_assignment_completed_title" : "你有新消息",
	"dialog_fail_load_setting_corrupt_retry" : "设置文件损坏。是否尝试重新载入？",
	"8db63936938575bf" : "",
	"dialog_new_unlock_title" : "恭喜！",
	"8db63936938575bf" : "",
	"8db63936938575bf" : "",
	"8db63936938575bf" : "",
	"sm_36_obj" : "完成"疾速营救"任务，难度为非常困难或以上。$NL;要完成此任务，你必须从头开始劫案。",
	"dialog_gamesight_telemetry_title" : "欢迎来到PAYDAY 2！",
	"dialog_no_chat_parental_control" : "由于你的Sony_Entertainment_Network账户受到家长控制的限制，聊天功能已禁用。",
	"sm_20_desc" : "我不喜欢被人使唤，不过这个叫牙医的人确实有本事能帮我们把兄弟弄回来。如果我们想要救出霍斯顿，就得先按他定的小目标来，尽管这一点都不"小"。他"亲切地"要我们做的第一件事大概就是我们迄今为止干过的最大买卖。他要我们证明自己的价值，证明的方法则是一场终极大劫案——目标是从未被洗劫过的贝涅弗伦银行。他说如果我们干成了这一票，他就会找机会帮我们夺回霍斯顿，当然也没这么简单。我估计之后还会有更多麻烦事。",
	"8db63936938575bf" : "",
	"sm_23_desc" : "那个叛徒赫克特现在总算死透了。现在牙医又给我们安排了一些新活，不过有点遮遮掩掩的。总之按部就班来吧。麦肯德里克博物馆有块大宝石——"希望蓝钻"。我们的目标就是这块价值连城的宝贝。牙医想用这玩意做点大事，而我们也想分一杯羹，所以赶紧去把事办妥吧。",
	"sm_25_desc" : "在金牙赌场一战后，PAYDAY帮的名气从华盛顿直传到洛杉矶，甚至在国际上也崭露头角。一位克罗地亚的军火商屠夫就选择联系你们，打算在美国站稳脚跟。我们怎么能拒绝别人的美国梦呢？",
	"dialog_fetching_status_title" : "更新在线状态中。",
	"8db63936938575bf" : "",
	"dialog_mp_vote_restart_response_title" : "投票重开",
	"dialog_joining_lobby_title" : "加入游戏中",
	"8db63936938575bf" : "",
	"8db63936938575bf" : "",
	"dialog_telemetry_accept" : "$ACCEPT;接受",
	"nx64_noti_invite_decline" : "拒绝",
	"8db63936938575bf" : "",
	"sm_34_obj" : "完成"飞车党劫案"，难度为非常困难或以上。$NL;要完成此任务，你必须从头开始劫案。",
	"8db63936938575bf" : "",
	"8db63936938575bf" : "",
	"8db63936938575bf" : "",
	"sm_21_obj" : "完成"火线迈阿密"任务，难度为非常困难或以上。$NL;要完成此任务，你必须从头开始劫案。",
	"8db63936938575bf" : "",
	"sm_49_obj" : "完成"猎宝奇兵"任务，难度为非常困难或以上。$NL;要完成此任务，你必须从头开始劫案。",
	"8db63936938575bf" : "",
	"dialog_are_you_sure_you_want_to_leave_game" : "确定要离开当前游戏吗？",
	"8db63936938575bf" : "",
	"dialog_err_room_no_longer_exists_NX64" : "该房间已不存在，请尝试其他房间。",
	"8db63936938575bf" : "",
	"dialog_pda9_event_text" : "PAYDAY 2正在庆祝周年纪念！你知道这意味着......小猪存钱罐！$NL;$NL;活动Crime.net页面的任意劫案中都能找到小猪存钱罐。它们通常出现在劫案刚开始或临近结束，挂在屋顶和宽阔区域。尽可能多地向小猪支付小猪钞票让它成长，然后打破存钱罐并撤离以获得海量经验！根据你支付的钞票数量，小猪可以成长到五个阶段。小猪越大，你能获得的经验就越多！$NL;$NL;不过要在哪里找到小猪钞票？很简单！通过爆头或钞票喷射器击杀敌人，就会掉落闪闪发光的黄金袋子。普通击杀也会掉落，但概率要低得多。如果你在十秒内没有拿到小猪钞票，它们就会消失，所以动作要快！$NL;$NL;小猪相关劫案的可游玩次数没有限制，并且在完成后，你获得的总经验会翻倍。此外，你还可以通过与小猪有关的额外挑战获得更多经验。$NL;$NL;现在出去大干一场，让小猪感到自豪吧！",
	"8db63936938575bf" : "",
	"sm_22_name" : "自由鸟",
	"8db63936938575bf" : "",
	"8db63936938575bf" : "",
	"sm_12_name" : "收缴租金",
	"8db63936938575bf" : "",
	"8db63936938575bf" : "",
	"dialog_no" : "否",
	"dialog_new_unlock_primaries" : "$value;已解锁$NL;并可购买至空主武器栏中。",
	"dialog_buy_weapon_message" : "你想花费$COST;购买武器"$WEAPON;"吗？",
	"dialog_mp_vote_kick_response_title" : "投票踢出",
	"sm_38_desc" : "有句老话叫"税务官驾到"，相当深刻。不过我们换个方式呢？大陆酒店会给我们发来感谢信的。这个国税局的家伙正打算将装有价值上百万敏感情报的硬盘卖给某些企业的混蛋，如果我们插上一脚，就能将其据为己有。这次该我们扮演罗宾汉，劫税务员济劫匪喽。",
	"8db63936938575bf" : "",
	"dialog_cant_continue_cs_title" : "无法继续",
	"dialog_require_dlc_gage_pack_jobs" : "需要Gage Mod Courier DLC！",
	"dialog_show_restart_game_message" : "确定要重新开始当前游戏吗？",
	"dialog_game_is_installing_menu" : "此部分内容尚未安装。请在游戏完整安装后重试。",
	"dialog_mp_vote_kick_unknown_message" : "已发起踢出正在连接玩家的投票。投票将于$time;秒后结束。",
	"8db63936938575bf" : "",
	"8db63936938575bf" : "",
	"8db63936938575bf" : "",
	"8db63936938575bf" : "",
	"8db63936938575bf" : "",
	"sm_20_name" : "伟大时刻",
	"dialog_license" : "阅读最终用户许可协议",
	"8db63936938575bf" : "",
	"8db63936938575bf" : "",
	"dialog_default_options_message" : "你想将所有选项恢复为默认状态吗？",
	"8db63936938575bf" : "",
	"8db63936938575bf" : "",
	"8db63936938575bf" : "",
	"8db63936938575bf" : "",
	"8db63936938575bf" : "",
	"dialog_connect_controller_text_X360" : "请重新连接Xbox_One无线控制器并按下$BTN_A;。",
	"8db63936938575bf" : "",
	"8db63936938575bf" : "",
	"dialog_authentication_fail" : "Steam无法验证你的Steam ID。",
	"8db63936938575bf" : "",
	"8db63936938575bf" : "",
	"8db63936938575bf" : "",
	"8db63936938575bf" : "",
	"nx64_noti_press_to_view_p1" : "按",
	"8db63936938575bf" : "",
	"dialog_continue_cs_title" : "继续罪无止境",
	"37d5d0da19d1f30f" : "网络遥测是完全匿名的，它让我们知道玩家喜欢如何玩游戏，哪些劫案是最受欢迎的，哪些任务目标太难或太容易，诸如此类的事情。这有助于我们把游戏做得更好。$NL;$NL;网络遥测是可选的，你可以随时在高级选项中禁用它。",
	"8db63936938575bf" : "",
	"sm_21_name" : "击杀目标",
	"dialog_fail_load_progress_wrong_version_retry" : "存档版本错误。需要$VERSION;或以上版本。是否尝试重新载入？",
	"dialog_err_failed_searching_lobbys" : "取回游戏失败。",
	"sm_10_obj" : "完成"震后余波"任务，难度为困难或以上。$NL;要完成此任务，你必须从头开始劫案。",
	"8db63936938575bf" : "",
	"8db63936938575bf" : "",
	"dialog_infamytree_reseted" : "恶名树已发生改变。$NL;$NL;你的所有恶名物品已重置，恶名点数已退回。",
	"8db63936938575bf" : "",
	"dialog_connect_controller_text_NX64" : "请将控制器连接至Nintendo Switch。",
	"8db63936938575bf" : "",
	"sm_first_safehouse_desc" : "鉴于你们之后会在各地兴风作浪，我想你们得找个能称之为"家"的地方——一间安全屋。我刚好有间房子，不算太华丽，不过对现在来说够用了。去那里安顿一下，然后我们再来考虑生财之道吧。",
	"dialog_join_pd2_clan" : "前往PAYDAY 2社区页面",
	"dialog_safehouse_goto_text" : "确定要前往安全屋吗？",
	"8db63936938575bf" : "",
	"8db63936938575bf" : "",
	"dialog_err_not_signed_in" : "你必须处于在线状态才能使用网络功能。",
	"dialog_signin_change_X360" : "已发生登录变更。$NL;你已回到标题画面。",
	"dialog_new_unlock_textures" : "你刚刚获得了用于自定义面具的第一份花纹。$NL;要完成自定义面具，你需要材质，花纹和配色。",
	"8db63936938575bf" : "",
	"dialog_npcommerce_fail_open" : "未能初始化PlayStation®Store",
	"dialog_blackmarket_abort_mask_warning" : "你的面具还没有完成。中途退出会使自定义无效。",
	"sm_53_obj" : "完成"白宫终幕"任务，难度为非常困难或以上。$NL;要完成此任务，你必须从头开始劫案。",
	"dialog_signin_change_NX64" : "已发生登录变更。$NL;你已回到标题画面。",
	"8db63936938575bf" : "",
	"sm_18_desc" : "把那台聚变引擎运走，大象就开心了。大象一开心就会付钱了。甚至他还为我们准备了点别的东西。他接下来需要解决某位对手，这事包在我们身上。",
	"sm_33_desc" : "我一般不喜欢对付没摸清底细的家伙，不过这次内部情报网发来一份关于法拉基尼跑车订单的请求，报酬相当丰厚，感觉值得一试。请求里没提到什么特别要注意的，所以我们放开手干就行了。这可能也算是向更高处爬升的好路子。车店周围有不少条子，我们又不能把车弄得稀烂，所以尽量避免交火好吧？",
	"8db63936938575bf" : "",
	"8db63936938575bf" : "",
	"8db63936938575bf" : "",
	"8db63936938575bf" : "",
	"sm_15_obj" : "完成"纵火者"任务，难度为非常困难或以上。$NL;要完成此任务，你必须从头开始劫案。",
	"f5cb95f8f86386c5" : "Gamesight可以告诉我们营销活动的情况，这有助于我们将新的玩家带入《PAYDAY 2》，并确保你在未来几年能在游戏中找到新的劫匪同伴。$NL;$NL;Gamesight是可选的，你可以随时在高级选项中禁用它。",
	"8db63936938575bf" : "",
	"8db63936938575bf" : "",
	"dialog_does_not_own_heist_info" : "玩家$PLAYER无法游玩"$HEIST;"任务。",
	"8db63936938575bf" : "",
	"dialog_new_unlock_masks" : "你刚刚获得了你的第一个面具。$NL;所有掉落的面具会存放在面具库，并可以移动到空面具栏中。如果你有全部组件就可以自定义设计面具。",
	"8db63936938575bf" : "",
	"8db63936938575bf" : "",
	"dialog_creating_lobby_title" : "创建游戏中",
	"8db63936938575bf" : "",
	"8db63936938575bf" : "",
	"dialog_signin_title_NX64" : "未登录",
	"dialog_cant_continue_cs_text" : "你的大陆币不足，无法继续罪无止境。要想从等级$level;$BTN_SPREE_TICKET;继续开始，你需要$cost;枚大陆币。",
	"8db63936938575bf" : "",
	"dialog_accept" : "接受",
	"8db63936938575bf" : "",
	"8db63936938575bf" : "",
	"dialog_are_you_sure_you_want_to_clear_progress" : "确定要清空你的存档吗？这将重置你的现金，声望等级和你的装备库。",
	"dialog_unsuspend" : "此技能组当前为暂定状态。你可以重置其中的全部技能点数，使技能组恢复为可用状态。你是否要重置$Name;？",
	"dialog_bm_mask_custom_final_title" : "你确定吗？",
	"dialog_does_not_own_heist" : "你未拥有此劫案，无法加入该房间。",
	"8db63936938575bf" : "",
	"dialog_signin_question_X360" : "你必须登录至某一账户才能保存。是否要现在登录？",
	"8db63936938575bf" : "",
	"ps4_presence_MPLobby" : "多人大厅",
	"8db63936938575bf" : "",
	"sm_7_name" : "国际人脉",
	"dialog_mp_disconnected_internet_PS3" : "你已从PlayStation_Network断开连接。你需要连接网络才能游玩此部分内容。",
	"8db63936938575bf" : "",
	"8db63936938575bf" : "",
	"8db63936938575bf" : "",
	"dialog_fail_load_setting_corrupt" : "设置文件损坏。即将删除数据。",
	"8db63936938575bf" : "",
	"dialog_telemetry_decline" : "$DECLINE;拒绝",
	"dialog_item_list_macro" : "$num;件$item;",
	"dialog_fail_load_progress_wrong_version" : "存档版本错误。需要$VERSION;或以上版本。即将删除数据。",
	"8db63936938575bf" : "",
	"dialog_texas_heat_drop_name" : "Texas Heat",
	"dialog_connect_controller_title_X360" : "已断开控制器连接",
	"8db63936938575bf" : "",
	"8db63936938575bf" : "",
	"dfaa13f9c9f5013a" : "遗失的录音带：狱友",
	"8db63936938575bf" : "",
	"8db63936938575bf" : "",
	"dialog_too_low_level" : "声望等级过低，无法加入该房间。",
	"8db63936938575bf" : "",
	"8db63936938575bf" : "",
	"8db63936938575bf" : "",
	"8db63936938575bf" : "",
	"8db63936938575bf" : "",
	"dialog_blackmarket_mod_conflict" : "这些改装不兼容，即将被移除：$mods;",
	"8db63936938575bf" : "",
	"sm_31_desc" : "这什么"阻止邪恶疯子"之类的说法真让人不舒服，但吉米的言辞非常恳切，也许我们是该出手一搏。唯一的问题是......呃......我们得去俄罗斯。吉米想要我们偷取一份高科技数据缓存，这样埃肯的计划就无法得逞。他对此可是相当愤怒。不过就算这是吉米个人的请求，当作一次公益行动，我们仍然可以从中谋利。另外也算是换换心情对吧？我听说这个时候的西伯利亚可美了......",
	"dialog_blackmarket_buy_mask_slot" : "即将解锁一个新面具栏。$NL;$NL;这将花费$money;。",
	"8db63936938575bf" : "",
	"dialog_new_unlock_materials" : "你刚刚获得了用于自定义面具的第一份材质。$NL;要完成自定义面具，你需要材质，花纹和配色。",
	"8db63936938575bf" : "",
	"8db63936938575bf" : "",
	"8db63936938575bf" : "",
	"8db63936938575bf" : "",
	"sm_21_desc" : "牙医要交给我们一项大任务，不过在此之前我们要先接回霍斯顿——他处于最高安保看管下。要接触他就得想办法联系地方检察官。问题在于这家伙处于某个自称政委的俄国混蛋保护之下。怎么办？把政委干掉。虽然这种工作不是我们的风格但是......总有例外嘛。",
	"8db63936938575bf" : "",
	"dialog_transaction_successful" : "交易成功",
	"d5ac68f1c2b3487c" : "PAYDAY 2十周年",
	"dialog_tradable_drill_amount" : "$amount;x $item;",
	"8db63936938575bf" : "",
	"dialog_xp_to_specialization" : "经验转化的天赋点",
	"8db63936938575bf" : "",
	"8db63936938575bf" : "",
	"dialog_the_host_has_left_the_game" : "房主已离开游戏",
	"dialog_fail_load_setting_wrong_version" : "设置文件版本错误。需要$VERSION;或以上版本。即将删除数据。",
	"dialog_mp_groupinvite_title" : "游戏请求",
	"dialog_gamesight_toggle" : "启用Gamesight",
	"8db63936938575bf" : "",
	"8db63936938575bf" : "",
	"8db63936938575bf" : "",
	"ps4_presence_SPEnd" : "单人劫案已结束",
	"sm_44_name" : "极地狩猎",
	"8db63936938575bf" : "",
	"8db63936938575bf" : "",
	"dialog_cs_cant_claim_rewards_text" : "你没有可获取的奖励。",
	"8db63936938575bf" : "",
	"dialog_key_binding_collision" : ""$KEY;"键已定义为"$MAPPED;"，请先重新定义。",
	"8db63936938575bf" : "",
	"sm_13_name" : "诚实工作",
	"8db63936938575bf" : "",
	"sm_17_name" : "权力游戏",
	"8db63936938575bf" : "",
	"err_disk" : "可用空间不足，无法载入奖杯。请退出游戏并确保有至少$MB;MB的可用空间后重试。",
	"dialog_unlock_skill_switch_spending_offshore" : "这将花费$spending;可用现金与$offshore;离岸资金。",
	"sm_8_desc" : "弗拉德很高兴，而且我们最好让他一直这样高兴下去。事实上他甚至想把一些私人事务交给你们来处理。把这些事处理好，我们就是他的座上宾。向大人物卖几个小人情应该没什么问题吧？",
	"dialog_fail_load_setting_wrong_version_retry" : "设置文件版本错误。需要$VERSION;或以上版本。是否尝试重新载入？",
	"dialog_request_timed_out_title" : "超时",
	"2ea01d11a8a82709" : "永远不要涉足政治。$NL;$NL;PAYDAY帮已经动摇了华盛顿特区的根基，而一份窃听到两个特工之间的对话暗示着清算就在眼前。$NL;$NL;前往"遗失的录音带"菜单，偷取这段秘密录音！",
	"dialog_blackmarket_slot_item" : "[$slot;号栏位]$item;",
	"dialog_err_not_signed_in_X360" : "你当前尚未登录Xbox_Live，或者你未获得Xbox_Live功能许可。",
	"dialog_blackmarket_slot_mask_remove" : "将此面具送回面具库？$suffix;",
	"sm_15_name" : "付出代价",
	"ps4_presence_SPPlaying" : "游玩单人劫案中",
	"nx64_presence_MPLobby" : "多人大厅",
	"dialog_fail_load_progress_wrong_version_WIN32" : "存档版本错误。即将删除数据。",
	"nx64_presence_SPEnd" : "单人劫案已结束",
	"nx64_presence_SPPlaying" : "游玩单人劫案中",
	"sm_19_desc" : "大象更像是个幕后掌权的合约人。他通过操纵爪牙得以上位，这也是我们现在要做的事。他打算扶持一个叫鲍勃·麦肯德里克的人登上华盛顿市长的宝座，我们的工作就是确保选举不会出现意外。",
	"dialog_blackmarket_mod_remove" : "即将删除武器改装$mod;。",
	"dialog_infamy_reseted_title" : "请注意",
	"dialog_wait" : "请稍候",
	"sm_22_obj" : "完成"霍斯顿越狱记"任务，难度为非常困难或以上。$NL;要完成此任务，你必须从头开始劫案。",
	"sm_12_desc" : "在弗拉德愿意拿出白粉做交易之前，他要看到一些"诚意"。PAYDAY帮的名号还不算太响亮。给弗拉德当一回打手，让他的对手们一点颜色瞧瞧。我知道这家伙挺烦人的，不过他之后会准备把你们介绍给黑帮组织，因此还是值得的。",
	"nx64_noti_invites_title" : "邀请",
	"dialog_vote_cancel" : "弃权",
	"dialog_abort_mission_text" : "确定要终止当前合约吗？$NL;$NL;你和你的队友将返回计划阶段并重新选择新的合约。",
	"dialog_mp_invite_message" : "请加入我的PAYDAY 2游戏",
	"dialog_err_failed_creating_lobby" : "创建游戏失败。",
	"dialog_fail_load_progress_corrupt" : "存档损坏。数据将被删除。",
	"dialog_cs_crash_fail_text" : "你的罪无止境挑战由于游戏的意外关闭而失败。$NL;你仍然可以支付大陆币继续挑战。",
	"dialog_connect_controller_title" : "无线控制器未连接",
	"dialog_bm_mask_assemble_title" : "你确定吗？",
	"dialog_ask_load_progress_backup_low_lvl" : "你的本地备份存档比上一个云存档更新。$NL;$NL;如果要载入本地备份存档，按是。",
	"dialog_mission_asset_buy" : "$asset_desc;$NL;$NL;花费：$cost;。",
	"dialog_connect_controller_text" : "无线控制器未连接，请重新连接控制器",
	"dialog_cheated_host" : "无法在作弊房间中游戏。",
	"dialog_bm_crafted_sell_title" : "你确定吗？",
	"dialog_demo_info_text" : "感谢安装试玩版游戏！$NL;$NL;在此试玩版的PAYDAY_2游戏中，你可以将角色升至10级。请注意试玩版中的存档不会继承至完整版游戏中。$NL;$NL;OVERKILL全体员工希望你享受此试玩版游戏。如果你喜欢我们的作品，可以即刻购买完整版游戏并通过恶名系统继续升级。完整版游戏同时还包括更多劫案、武器、改装以及面具等内容。$NL;$NL;——OVERKILL全体员工",
	"dialog_fail_load_dlc_corrupt" : "检测到已损坏的可下载内容。请前往Dashboard的内存分区，删除损坏的内容并重新下载。",
	"dialog_gamesight_telemetry_text" : "在开始你的PAYDAY 2游戏之前，我们需要告知你，游玩该产品意味着你接受我们的隐私政策和PAYDAY最终用户许可协议。$NL;$NL;我们还想知道你是否允许我们启用GAMESIGHT和网络遥测追踪。这些工具将用于收集有关游戏的信息。$NL;$NL;网络遥测将完全匿名，仅会向我们显示人们如何玩游戏，哪些劫案最受欢迎，哪些目标太难或太容易等内容，以帮助我们使游戏变得更好。$NL;$NL;Gamesight能告诉我们营销活动的接受度，这有助于我们将新的玩家带入PAYDAY 2，确保有源源不断的新玩家涌入游戏。$NL;$NL;这两者均为可选项，你可以随时在高级选项中将其禁用。",
	"708aa69bf2189cb2" : "Gamesight",
	"dialog_mp_disconnected_internet_NX64" : "你已从Nintendo_Account断开连接。你需要连接网络才能游玩此部分内容。",
	"dialog_mp_invite_message_NX64" : "$FRIEND;：请加入我的PAYDAY 2游戏",
	"dialog_mp_pending_invite_message" : "你有一份未查看的游戏邀请。点击主菜单中的"在线游戏"选项登录PlayStation_Network并加入此游戏。",
	"dialog_mp_send_invite_title" : "发送游戏邀请",
	"dialog_new_unlock_weapon_mods" : "你刚获得了你的第一份武器改装。可以通过选择已购买的武器并从菜单中选择改装武器来访问该武器改装界面。$NL;根据你购买来的武器上的感叹号可以找到你最近获得的模组。",
	"dialog_npcommerce_empty_store" : "当前无可下载内容。请稍后重试。",
	"dialog_npcommerce_need_install" : "要游玩完整版游戏，你需要在安装完成后重启游戏。",
	"dialog_repair_weapon_message" : "确定要花费$COST;修理武器"$WEAPON;"吗？",
	"dialog_respec_skilltree" : "你即将重置此技能树。$NL;$NL;重置后会返还$tree;技能树的所有技能点。",
	"dialog_retrieving_servers_title" : "获取游戏中",
	"dialog_safehouse_title" : "安全屋",
	"dialog_skip_storage_warning_NX64" : "未检测到存储设备。$NL;$NL;如果未选中存储设备就继续，你将无法保存游戏。$NL;$NL;确定要在不保存的情况下继续吗？",
	"dialog_telemetry_question" : "我们将收集游戏数据以提升您的游戏体验。请问您是否同意？",
	"dialog_unsuspend_title" : "重置技能组",
	"dialog_use_default_keys_message" : "确定将所有按键恢复至默认状态吗？",
	"dialog_vote_kick_no" : "否决踢出",
	"dialog_warning_title" : "警告",
	"err_load" : "载入奖杯中......",
	"mutator_birthday_desc" : "击杀特殊敌人会产生气球。打破气球即可为全队获得持续或即刻增益，具体取决于被击杀的特殊敌人类型。某些敌人产生气球的概率比其他敌人更高。同时可以激活多种加成。",
	"nx64_presence_SafeHousePlaying" : "安全屋中",
	"ps4_presence_MPPlaying" : "游玩多人劫案中",
	"ps4_presence_SafeHousePlaying" : "安全屋中",
	"screen_autosaving_warning_PS3" : "此游戏会在特定位置自动保存数据。$NL;保存时请不要关闭游戏。此图标出现时请勿关闭PlayStation®4系统：",
	"screen_autosaving_warning_WIN32" : "此游戏会在特定位置自动保存数据。$NL;保存时请不要关闭游戏。",
	"screen_autosaving_warning_X360" : "此游戏会在特定位置自动保存数据。$NL;保存时请不要关闭游戏。此图标出现时请勿关闭Xbox One系统：",
	"sm_10_name" : "高速事故",
	"sm_13_desc" : "弗拉德帮我们搭上了贩毒集团内部的一位合约人——赫克特·莫拉莱斯。不过我们得先证明自己才能参与其行动之中。当务之急是提升我们自己的名气，因此继续完成劫案，直到我们的名号被华盛顿的每个条子和政客都挂在嘴边，那样应该就够了。",
	"sm_14_desc" : "赫克特有工作交给我们。他打算将一大船可卡因运往船坞。是非常大一船。他希望我们能将这些货物运走。我猜这些东西对他在组织里的地位很重要，因此这是个和他接洽的好时机。",
	"sm_14_obj" : "完成"看门狗"任务，难度为非常困难或以上。$NL;要完成此任务，你必须从头开始劫案。",
	"sm_16_name" : "应付账款",
	"sm_17_desc" : "好吧，又有新活了。对方是一位自称大象的政客。这次任务与工业破坏有点关系。某位著名科学家在冷聚变技术上取得了重大突破，这会让传统石油企业彻底完蛋。而这位"掌权者"在石油领域下了不少本钱，因此大象与他的朋友要求必须毁掉这项技术。我觉得没问题。",
	"sm_1_desc" : "这差事应该不算难。别担心，有我在呢，你尽管听我说的就行。给我个机会证明你现在还是有两把刷子的。",
	"sm_1_name" : "入门基础",
	"sm_20_obj" : "完成"大银行"任务，难度为非常困难或以上。$NL;要完成此任务，你必须从头开始劫案。",
	"sm_23_name" : "某物恒久远",
	"sm_24_desc" : ""希望蓝钻"也许价值连城，但在牙医看来不过是一件工具。准确来说是工具的一部分。他真正的目标藏在世上某间最坚固的金库里——金牙大赌场。我们可以考虑偷偷溜进去，不过事情一旦败露就得进入B计划，因此我们带上了索科尔。他设计了一架钻机——有史以来的最大钻机，并且将"希望蓝钻"做成了钻头。收拾好行李——我们要去维加斯了。",
	"sm_25_name" : "一位新朋友",
	"sm_25_obj" : "完成"炸弹劫案：船坞"或"炸弹劫案：森林"，难度为非常困难或以上。$NL;要完成此任务，你必须从头开始劫案。",
	"sm_26_desc" : "屠夫迅速发展的国际行动似乎出了点麻烦。索萨集团对她的货物不怀好意。我们好不容易才结识这位巴尔干半岛的朋友，因此还是帮她一下吧。",
	"sm_27_desc" : "你们已经经历了很多，但别以为这就是旅途的终点。在你们的努力下，PAYDAY帮成为了人人闻之色变的风云组织。请继续努力。打劫银行，完成劫案，做你们最擅长的事情。",
	"sm_27_obj" : "达到罪无止境等级20。",
	"sm_28_desc" : "享受完了日光浴和烈酒，现在该继续干正事了。我现在有个想法，不过得需要一点帮助，而我所需要的帮助并不简单，所以我们得先办出点大事说服对方。我这里有几个不错的选项给你们挑......",
	"sm_28_name" : "假期归来",
	"sm_28_obj" : "完成"艾利索音乐劫"或"伪钞风波"任务，难度为非常困难或以上。$NL;要完成此任务，你必须从头开始劫案。",
	"sm_2_desc" : "好了，这应该能行。不过准备工作仍然很重要。你们是专业人士，得有适合的装备。目前储备还不多，不过你们只要多完成劫案，提高名气，这里早晚会被各种装备填满的。",
	"sm_2_name" : "准备就绪",
	"sm_30_desc" : "你们可能会怀疑这趟任务的生还几率，但我还是比较乐观的。总之这个叫吉米的家伙说要入伙，还说自己有笔大买卖交给我们。我调查了一番，没想到从消息来看这家伙还算靠谱，所以这次应该不会走空。不过我们仍然要计划周全，因此这次的对手是那个臭名昭著的俄罗斯疯子"埃肯"。我听说那家伙可不是什么善茬。吉米要我们做的第一件事就是前往莫奇沃特管辖的一处车站，并且要拦截......听听这个——一枚EMP炸弹！他说我们接下来的行动会用到这玩意。",
	"sm_30_name" : "勿扰猛熊",
	"sm_31_name" : "莫斯科毒骡",
	"sm_31_obj" : "完成"尖峰一刻"任务，难度为非常困难或以上。$NL;要完成此任务，你必须从头开始劫案。",
	"sm_32_name" : "动物农场",
	"sm_33_name" : "新车异味",
	"sm_33_obj" : "完成"车行劫案"任务，难度为非常困难或以上。$NL;要完成此任务，你必须从头开始劫案。",
	"sm_34_name" : "铬、橡胶&文身",
	"sm_35_desc" : "看来我们的新成员已经安顿下来了。拉斯特在全城范围还有不少线人，并为我们拿到了一份有趣的消息。有个本地帮派在某栋废弃大楼里建了个避难室并装满了战利品。很明显那玩意没办法被无损打开，不过我另有妙计。你们准备去和这些家伙玩玩吧。",
	"sm_36_name" : "纽约局势",
	"sm_37_desc" : "麦肯德里克市长总是给我们找麻烦，也该是时候报答他一下了。就用政客们最讨厌的方式——财产损失。威克从卡戎那里得知市长在举办一次大型募捐，我们要悄悄把那里毁掉。",
	"sm_37_name" : "打水漂",
	"sm_37_obj" : "完成"游艇劫案"，难度为非常困难或以上。$NL;要完成此任务，你必须从头开始劫案。",
	"sm_38_obj" : "完成"卧底行动"任务，难度为非常困难或以上。$NL;要完成此任务，你必须从头开始劫案。",
	"sm_39_desc" : "我一直在找更多办法查清莫奇沃特组织的真相。他们的眼线到处都是，而且总会在最意想不到的地方出现。他们实际的人数肯定比我们见过的更多。这些家伙在华盛顿有一条补给线，我一直在调查这件事，而现在似乎总算有了我们感兴趣的货物出现。",
	"sm_39_name" : "运送砖头",
	"sm_39_obj" : "完成"大闹屠宰场"任务，难度为非常困难或以上。$NL;要完成此任务，你必须从头开始劫案。",
	"sm_3_desc" : "好了，现在条子对你们一无所知。你们有了面具和枪，但你们是否准备好让PAYDAY帮的名号成为传奇？考验你们的时刻到了。华盛顿到处都有分行和珠宝店，而且很久没人去打劫了。准备发财吧。",
	"sm_3_name" : "小试牛刀",
	"sm_3_obj" : "完成"珠宝店"任务与任意银行劫案。$NL;要完成此任务，你必须从头开始劫案。",
	"sm_40_desc" : "有些时候命运会让你们明白自己最大的问题所在，避免自己过于自负。看来莫奇沃特被我们搞得不厌其烦，现在终于打算发起报复行动了。有个莫奇沃特的内部人士刚刚骇入了Crime.net——并且说他可以一劳永逸地除掉我们，我看他说的并非虚言。但他随后又说想和我们合作，来对付莫奇沃特。这就有意思了哈？谁知道那家伙到底在打什么算盘呢，不过在我们搞清真相之前，倒不如陪他玩玩。只要依照他的指示，见机行事捞上一笔也不算亏，但一刻也不要放松警惕。",
	"sm_41_name" : "天降小丑",
	"sm_42_desc" : "暂时还不清楚这个洛克葫芦里卖的什么药，不过他倒是挺活跃的。不说别的，就他对付莫奇沃特的手段来看，想靠这个背叛我们简直是自寻死路。目前他还没让我们失望。他说自己知道有人想干翻我们，当然我们是不会给他们机会的......",
	"sm_42_name" : "损害管制",
	"sm_42_obj" : "完成"热火街头"任务，难度为非常困难或以上。$NL;要完成此任务，你必须从头开始劫案。",
	"sm_43_name" : "拦桥劫财",
	"sm_43_obj" : "完成"格林大桥"任务，难度为非常困难或以上。$NL;要完成此任务，你必须从头开始劫案。",
	"sm_45_name" : "碳物回收",
	"sm_45_obj" : "完成"宝钻劫掠"任务，难度为非常困难或以上。$NL;要完成此任务，你必须从头开始劫案。",
	"sm_46_obj" : "完成"落水狗劫案"任务，难度为非常困难或以上。$NL;要完成此任务，你必须从头开始劫案。",
	"sm_47_name" : "旧镇新人",
	"sm_48_desc" : "如果贝恩的消息属实，那他是真的死了。而现在大象也被抓起来了。根据加内特的邮件日志记录，抓捕贝恩的幕后黑手是一个名为"共盟会"的组织；这些家伙以莫奇沃特作为幌子，而其真身则是个从古代便流传下来的秘密社团。他们打算将贝恩的尸体交给加内特，以此换取某样和贝恩的圣杯，也就是杜克口中的"鲍德温的挽歌"有关的东西。所以我们要是想完成贝恩的遗愿，就得先把这东西拿到手。当然风险越大回报越大，对吧？",
	"sm_48_obj" : "完成"虎口夺食"任务，难度为非常困难或以上。$NL;要完成此任务，你必须从头开始劫案。",
	"sm_49_name" : "荒漠之物",
	"sm_4_desc" : "你们现在上道了。作为犯罪世界中的劫匪，人脉非常重要。来见见盖奇吧。他会为我们提供枪支并帮忙处理赃物，是个很靠谱的盟友。他希望你们去船坞附近干点偷鸡摸狗的事——一定要来无影去无踪。",
	"sm_4_obj" : "在"暗影突袭"任务中劫获四包战利品，不限游玩次数。$NL;要完成此任务，你必须从头开始劫案。",
	"sm_50_desc" : "由于加内特局长那个蠢蛋靠着假的"共盟会"证据发起了错误指控，大象现在已经成功脱狱，并打算回报我们。看来他是要帮助我们找到"鲍德温的挽歌"，还有贝恩本人了。他向我们提到目前在马萨诸塞州的塞勒姆正要举办一场拍卖会，拍卖的货品则是最近从南极洲的某艘沉船发掘回来的好东西。根据杜克的祖父留下的笔记与研究成果来看，船上有某位成员就和"共盟会"有关。这位乘客在1905年要前往某个未知地点并试图让船转移航向，结果它最终消失于深海中。他身上携带的某样东西可说是价值连城，再说了......像这样遍地古董的拍卖会也能给我们贴补不少家用呢，如何？",
	"sm_51_desc" : "好了大伙听着，"共盟会"的那群混蛋已经把贝恩劫走太久了。根据大象提供的情报，我总算找到了贝恩被关押的地点。莫奇沃特名下的设施可不少，而这里则是最为臭名昭著之一——其在70年代就从美国军方手中买下的一座监狱，位于某座有灯塔的小岛之上。只要灯塔运转正常就没人会关心小岛本身，因为莫奇沃特将监狱包装成了某项附属设施在偷偷运作。这座监狱原本是用来关押珍珠港事件后的日本战犯，并且配备有先进的医疗设施。我当年给莫奇沃特办事的时候，就有传言称他们在里面进行着不少肮脏的实验。我正在筹备计划将你们进入其中救出贝恩。希望还没有太迟。",
	"sm_51_name" : "无力回天",
	"sm_52_desc" : "亲爱的朋友们，牙医还有那群莫奇沃特混蛋们给贝恩注射了一种神秘病毒。我努力从莫奇沃特的主机中挖来了一些情报，这病毒的代号可是很耳熟啊。他们在多年之前就搞到了这份病毒，并且受到美国政府的委托通过生物战条例的漏洞来开发生物毒素。我拜托一个老交情的生物医学家检查了下，病毒本身并不具有传染性，但情况实在太糟了。没有任何解药。贝恩大概......只剩下几天可活了。我向钱恩斯问过贝恩对这些神秘圣物的痴迷是从何时开始的，而他提到了卡里奥斯特罗之书，这份手稿曾是多年前一桩医院劫案的报酬，而劫案中也涉及到了隔离病房内病人的血液。我记得莫奇沃特那时候也出了一场大乱子，不得不拼命掩盖这起丑闻。当时有个......算是志愿者吧......在莫奇沃特进行医学实验的过程中逃离，组织上下都急着将其再次收容。这肯定不是巧合。也许贝恩一直以来追寻的目标，已经决定了他的结局。",
	"sm_52_obj" : "完成"冷血无情"任务，难度为非常困难或以上。$NL;要完成此任务，你必须从头开始劫案。",
	"sm_5_desc_old" : "做得不错。让那些莫奇沃特的傻大个们自己抓破头皮猜去吧。盖奇很开心，莫奇沃特那群家伙就惨了。当然，你们的名气也在进一步提升。在这个圈子里混，名气是最重要的。钱来钱走如过眼云烟，只有名气才能让你们证明自己的价值。继续努力吧。",
	"sm_6_name" : "炫耀时间",
	"sm_7_obj" : "完成"商场拆迁队"任务与"四商店"任务，难度为困难或以上。$NL;要完成此任务，你必须从头开始劫案。",
	"sm_8_obj" : "完成"白色圣诞劫"任务与"乌克兰买卖"任务，难度为困难或以上。$NL;要完成此任务，你必须从头开始劫案。",
	"sm_9_desc" : "好吧。弗拉德对你们挺欣赏的，他说有工作交给你们，特殊的大活，因此处理不好对大家都麻烦。动作一定要快。",
	"sm_act_2_name" : "第2章：Crime.net之王",
	"sm_act_3_name" : "第3章：终局游戏",
	"sm_end_name" : "罪无止境！",
	"sm_first_safehouse_name" : "避风港湾",
	"sm_first_safehouse_obj" : "访问一次安全屋。",
	"sm_hoxton_revenge_desc" : "霍斯顿在里面可没闲着。他甚至在闯进FBI大楼搜集叛徒资料的前一刻还没换下囚服。最终他没能找到名字——条子们对此非常谨慎——但找到了叛徒所在的安全屋。该了结这一切了。",
	"sm_moving_up_desc" : "好了，我之前说过有人在背后关注着你。其中尤其有一位对你饶有兴趣。我很快会带来这位合约人的一些大买卖，但他想进行的差事可说是相当困难的，你得提前做好准备。",
	"sm_moving_up_name" : "小有建树",
	"sm_moving_up_obj" : "达到声望等级25。",
	"8db63936938575bf" : "",
	"8db63936938575bf" : "",
	"8db63936938575bf" : "",
	"8db63936938575bf" : "",
	"8db63936938575bf" : "",
	"8db63936938575bf" : "",
	"8db63936938575bf" : "",
	"8db63936938575bf" : "",
	"8db63936938575bf" : "",
	"8db63936938575bf" : "",
	"8db63936938575bf" : "",
	"8db63936938575bf" : "",
	"8db63936938575bf" : "",
	"8db63936938575bf" : "",
	"8db63936938575bf" : "",
	"8db63936938575bf" : "",
	"8db63936938575bf" : "",
	"8db63936938575bf" : "",
	"8db63936938575bf" : "",
	"8db63936938575bf" : "",
	"8db63936938575bf" : "",
	"8db63936938575bf" : "",
	"8db63936938575bf" : "",
	"8db63936938575bf" : "",
	"8db63936938575bf" : "",
	"8db63936938575bf" : "",
	"8db63936938575bf" : "",
	"8db63936938575bf" : "",
	"8db63936938575bf" : "",
	"8db63936938575bf" : "",
	"8db63936938575bf" : "",
	"8db63936938575bf" : "",
	"8db63936938575bf" : "",
	"8db63936938575bf" : "",
	"8db63936938575bf" : "",
	"8db63936938575bf" : "",
	"8db63936938575bf" : "",
	"8db63936938575bf" : "",
	"8db63936938575bf" : "",
	"8db63936938575bf" : "",
	"8db63936938575bf" : "",
	"8db63936938575bf" : "",
	"8db63936938575bf" : "",
	"8db63936938575bf" : "",
	"8db63936938575bf" : "",
	"8db63936938575bf" : "",
	"8db63936938575bf" : "",
	"8db63936938575bf" : "",
	"8db63936938575bf" : "",
	"8db63936938575bf" : "",
	"8db63936938575bf" : "",
	"8db63936938575bf" : "",
	"8db63936938575bf" : "",
	"8db63936938575bf" : "",
	"8db63936938575bf" : "",
	"8db63936938575bf" : "",
	"8db63936938575bf" : "",
	"8db63936938575bf" : "",
	"8db63936938575bf" : "",
	"8db63936938575bf" : "",
	"8db63936938575bf" : "",
	"8db63936938575bf" : "",
	"8db63936938575bf" : "",
	"8db63936938575bf" : "",
	"8db63936938575bf" : "",
	"8db63936938575bf" : "",
	"8db63936938575bf" : "",
	"8db63936938575bf" : "",
	"8db63936938575bf" : "",
	"8db63936938575bf" : "",
	"8db63936938575bf" : "",
	"8db63936938575bf" : "",
	"8db63936938575bf" : "",
	"8db63936938575bf" : "",
	"8db63936938575bf" : "",
	"8db63936938575bf" : "",
	"8db63936938575bf" : "",
	"8db63936938575bf" : "",
	"8db63936938575bf" : "",
	"8db63936938575bf" : "",
	"8db63936938575bf" : "",
	"8db63936938575bf" : "",
	"8db63936938575bf" : "",
	"8db63936938575bf" : "",
	"8db63936938575bf" : "",
	"8db63936938575bf" : "",
	"8db63936938575bf" : "",
	"8db63936938575bf" : "",
	"8db63936938575bf" : "",
	"8db63936938575bf" : "",
	"8db63936938575bf" : "",
	"8db63936938575bf" : "",
	"8db63936938575bf" : "",
	"8db63936938575bf" : "",
	"8db63936938575bf" : "",
	"8db63936938575bf" : "",
	"8db63936938575bf" : "",
	"8db63936938575bf" : "",
	"8db63936938575bf" : "",
	"8db63936938575bf" : "",
	"8db63936938575bf" : "",
	"8db63936938575bf" : "",
	"8db63936938575bf" : "",
	"8db63936938575bf" : "",
	"8db63936938575bf" : "",
	"8db63936938575bf" : "",
	"8db63936938575bf" : "",
	"8db63936938575bf" : "",
	"8db63936938575bf" : "",
	"8db63936938575bf" : "",
	"8db63936938575bf" : "",
	"8db63936938575bf" : "",
	"8db63936938575bf" : "",
	"8db63936938575bf" : "",
	"8db63936938575bf" : "",
	"8db63936938575bf" : "",
	"8db63936938575bf" : "",
	"8db63936938575bf" : "",
	"8db63936938575bf" : "",
	"8db63936938575bf" : "",
	"8db63936938575bf" : "",
	"8db63936938575bf" : "",
	"8db63936938575bf" : "",
	"8db63936938575bf" : "",
	"8db63936938575bf" : "",
	"8db63936938575bf" : "",
	"8db63936938575bf" : "",
	"8db63936938575bf" : "",
	"8db63936938575bf" : "",
	"8db63936938575bf" : "",
	"8db63936938575bf" : "",
	"8db63936938575bf" : "",
	"8db63936938575bf" : "",
	"8db63936938575bf" : "",
	"8db63936938575bf" : "",
	"8db63936938575bf" : "",
	"8db63936938575bf" : "",
	"8db63936938575bf" : "",
	"8db63936938575bf" : "",
	"8db63936938575bf" : "",
	"8db63936938575bf" : ""
}